\relax 
\@writefile{toc}{\contentsline {section}{\numberline {1}General}{1}}
\@writefile{toc}{\contentsline {subsection}{\numberline {1.1}Returncodes}{1}}
\@writefile{toc}{\contentsline {subsection}{\numberline {1.2}Format}{1}}
\@writefile{toc}{\contentsline {subsection}{\numberline {1.3}Data Model}{1}}
\@writefile{toc}{\contentsline {subsection}{\numberline {1.4}Updating of resources containing appointments }{2}}
\@writefile{toc}{\contentsline {section}{\numberline {2}Poll}{2}}
\@writefile{toc}{\contentsline {subsection}{\numberline {2.1}GET all polls}{2}}
\@writefile{toc}{\contentsline {subsection}{\numberline {2.2}GET one poll}{2}}
\@writefile{toc}{\contentsline {subsection}{\numberline {2.3}POST}{3}}
\@writefile{toc}{\contentsline {subsection}{\numberline {2.4}PUT}{3}}
\@writefile{toc}{\contentsline {subsection}{\numberline {2.5}DELETE}{4}}
\@writefile{toc}{\contentsline {section}{\numberline {3}Vote}{4}}
\@writefile{toc}{\contentsline {subsection}{\numberline {3.1}POST}{4}}
\@writefile{toc}{\contentsline {subsection}{\numberline {3.2}PUT}{5}}
\@writefile{toc}{\contentsline {subsection}{\numberline {3.3}DELETE}{5}}
