\contentsline {section}{\numberline {1}General}{1}
\contentsline {subsection}{\numberline {1.1}Returncodes}{1}
\contentsline {subsection}{\numberline {1.2}Format}{1}
\contentsline {subsection}{\numberline {1.3}Data Model}{1}
\contentsline {subsection}{\numberline {1.4}Updating of resources containing appointments }{2}
\contentsline {section}{\numberline {2}Poll}{2}
\contentsline {subsection}{\numberline {2.1}GET all polls}{2}
\contentsline {subsection}{\numberline {2.2}GET one poll}{2}
\contentsline {subsection}{\numberline {2.3}POST}{3}
\contentsline {subsection}{\numberline {2.4}PUT}{3}
\contentsline {subsection}{\numberline {2.5}DELETE}{4}
\contentsline {section}{\numberline {3}Vote}{4}
\contentsline {subsection}{\numberline {3.1}POST}{4}
\contentsline {subsection}{\numberline {3.2}PUT}{5}
\contentsline {subsection}{\numberline {3.3}DELETE}{5}
